{
  "800": "Worker : Ocurrio un error en la generacion de Resumen de Boletas",
  "801": "Worker : No se ha recibido un ticket de respuesta en la generacion de resumen",
  "802": "Worker : No se ha recibido un constanciaZIP de respuesta",

  "900": "SUNAT : Error en el envio",
  "901": "SUNAT : Error en constancia",
  "1000": "Service : Error en procesar la peticion",
  "1001": "Service : Error en la conexion",
  "1002": "Service : Metodo no soportado",
  "1004": "Service : Error en crear el documento XML",
  "1005": "Service : Error en crear el archivo ZIP",
  "1007": "Service : Error en procesar CONSTANCIA",
  "1008": "Service : Error en actualizar datos de  comprobante",
  "1009": "Service : Ruta invalida",
  "2000": "Authentication : Token timestamp invalido",
  "2001": "Authentication : AccessKey Invalido",
  "2002": "Authentication : Las firmas no coinciden",
  "2003": "Authentication : El header y el querystring no estan presentes",
  "2004": "Authentication : El header no cumple con el formato",
  "2005": "Authentication : El header no cumple con el formato, Fo base",
  "2006": "Authentication : El header no cumple con el formato, Token",
  "2007": "Authentication : No cumple con el formato, Token Timestamp",
  "2008": "Authentication : Error en la authenticacion",
  "2009": "Authorization : El usuario esta eliminado",
  "2010": "Authorization : El usuario esta desactivado",
  "2011": "Authorization : El usuario no esta autorizado a emitir esta serie",
  "2012": "Authorization : El emisor no esta autorizado a emitir facturas",
  "2013": "Authorization : El emisor no esta autorizado a emitir boletas",
  "3000": "Comprobante : El comprobante enviado no cumple con las especificaciones",
  "3001": "Comprobante : El comprobante enviado debe tener al menos 1 item",
  "3002": "Comprobante : Las consultas por serienumero deben tener minimo 4 caracteres de la serie y 1 de numero",
  "3003": "Comprobante : Las consultas por serienumero deben tener una serie valida",
  "3004": "Comprobante : El comprobante consultado no existe",
  "3005": "Comprobante : serieAfectado es obligatorio",
  "3006": "Comprobante : serieAfectado no cumple con el formato",
  "3007": "Comprobante : numeroAfectado es obligatorio",
  "3008": "Comprobante : tipoComprobante es obligatorio",
  "3009": "Comprobante : tipoComprobante no cumple con el estandar",
  "3010": "Comprobante : Error en exportar el comprobante",
  "3011": "Comprobante : El comprobante afectado no existe",
  "3012": "Comprobante : La consulta esta mal formada",
  "3013": "Comprobante : El comprobante afectado no esta emitido",
  "3014": "Comprobante : Aun no esta generada la constancia de recepcion",
  "3015": "Comprobante : Las consultas por fechanumero deben tener minimo 8 caracteres (en formato YYYYMMDD ) y 1 de numero",


  "4000": "Receptor : El campo tipo es obligatorio",
  "4001": "Receptor : El campo tipo no cumple con el estandar ( ver Catalogo )",
  "4002": "Receptor : El campo nro es obligatorio",
  "4003": "Receptor : El campo es obligatorio",
  "4004": "Receptor : Solo se permiten consultas de ruc y dni",
  "4005": "Receptor : El numero de dni es invalido",
  "4006": "Receptor : El numero de dni no existe en la base de datos",
  "4007": "Receptor : El numero de ruc es invalido",
  "4008": "Receptor : El numero de ruc no existe en la base de datos",
  "4009": "Receptor : No se permiten receptores con RUC en caso de boletas",
  "4010": "Receptor : No se permiten receptores que no sean RUC en caso de facturas",
  "4011": "Receptor : El numero de documento es invalido",
  "4012": "Receptor : En caso de otros documentos , la razon social es obligatoria"
}