{
	"codigos":[
		"PEN",
		"EUR",
		"USD",
		"CAD",
		"GBP",
		"JPY",
		"SEK",
		"CHF"
	],
	"human":{
		"PEN":{
			"letras":"SOLES",
			"simbolo":"S/"
		},
		"EUR":{
			"letras":"EUROS",
			"simbolo":"€"
		},
		"USD":{
			"letras":"DOLARES AMERICANOS",
			"simbolo":"$"
		},
		"CAD":{
			"letras":"DOLARES CANADIENSES",
			"simbolo":"C$"
		},
		"GBP":{
			"letras":"LIBRAS ESTERLINAS",
			"simbolo":"£"
		},
		"JPY":{
			"letras":"YENES",
			"simbolo":"¥"
		},
		"SEK":{
			"letras":"CORONAS SUECAS",
			"simbolo":"kr"
		},
		"CHF":{
			"letras":"FRANCOS SUIZOS",
			"simbolo":"Fr."
		}
	}
}

